<svg viewBox="0 0 200 200" xmlns="http://www.w3.org/2000/svg">
    <path fill="#5163ff"
        d="M 44.6 -44.2 C 59.6 -29.6 74.9 -14.8 72.6 -2.2 C 70.4 10.3 50.7 20.6 35.7 36.3 C 20.6 51.9 10.3 72.9 -1.4 74.3 C -13.1 75.7 -26.1 57.4 -37.6 41.8 C -49.1 26.1 -59 13.1 -63.2 -4.2 C -67.4 -21.5 -65.9 -42.9 -54.4 -57.6 C -42.9 -72.2 -21.5 -80 -3.3 -76.7 C 14.8 -73.3 29.6 -58.8 44.6 -44.2 Z"
        transform="translate(100,100)" />


</svg>