<?xml version="1.0" encoding="UTF-8"?>
<!-- <!DOCTYPE svg PUBLIC "-//W3C//DTD SVG 1.1//EN" "http://www.w3.org/Graphics/SVG/1.1/DTD/svg11.dtd"> -->
<svg xmlns="http://www.w3.org/2000/svg" version="1.1" width="1920px" height="400px"
    style="fill-rule: evenodd; shape-rendering: geometricPrecision; text-rendering: geometricPrecision; image-rendering: optimizeQuality; clip-rule: evenodd"
    xmlns:xlink="http://www.w3.org/1999/xlink">
    <g>
        <path style="opacity: 1" fill="#0078f6"
            d="M -0.5 -0.5 C 87.5 -0.5 175.5 -0.5 263.5 -0.5 C 266.2 38.6 275.7 75.9 292 111.5 C 312.3 154.9 338.7 194.2 371 229.5 C 417.2 278.4 468.7 320.6 525.5 356 C 550.7 371.3 576.4 385.8 602.5 399.5 C 401.5 399.5 200.5 399.5 -0.5 399.5 C -0.5 266.2 -0.5 132.8 -0.5 -0.5 Z" />
    </g>
    <g>
        <path style="opacity: 1" fill="#0760c6"
            d="M 263.5 -0.5 C 479.5 -0.5 695.5 -0.5 911.5 -0.5 C 913.3 52.8 928.8 101.4 958 145.5 C 995.9 200.9 1043.1 246.6 1099.5 282.5 C 1100 283.9 1101 284.6 1102.5 284.5 C 1105.2 286.2 1107.8 287.8 1110.5 289.5 C 1111 290.9 1112 291.6 1113.5 291.5 C 1114.2 291.8 1114.8 292.2 1115.5 292.5 C 1116 293.9 1117 294.6 1118.5 294.5 C 1120.7 296.1 1123 297.4 1125.5 298.5 C 1126 299.9 1127 300.6 1128.5 300.5 C 1129.6 301.6 1130.9 302.3 1132.5 302.5 C 1133 303.9 1134 304.6 1135.5 304.5 C 1136.6 305.6 1137.9 306.3 1139.5 306.5 C 1140 307.9 1141 308.6 1142.5 308.5 C 1144.9 310.3 1147.6 311.6 1150.5 312.5 C 1151 313.9 1152 314.6 1153.5 314.5 C 1229.4 353.2 1309.1 381.5 1392.5 399.5 C 1129.2 399.5 865.8 399.5 602.5 399.5 C 576.4 385.8 550.7 371.3 525.5 356 C 468.7 320.6 417.2 278.4 371 229.5 C 338.7 194.2 312.3 154.9 292 111.5 C 275.7 75.9 266.2 38.6 263.5 -0.5 Z" />
    </g>
    <g>
        <path style="opacity: 1" fill="#0d539b"
            d="M 911.5 -0.5 C 1247.5 -0.5 1583.5 -0.5 1919.5 -0.5 C 1919.5 131.8 1919.5 264.2 1919.5 396.5 C 1915.4 397.5 1911.4 398.5 1907.5 399.5 C 1735.8 399.5 1564.2 399.5 1392.5 399.5 C 1309.1 381.5 1229.4 353.2 1153.5 314.5 C 1153 313.1 1152 312.4 1150.5 312.5 C 1147.6 311.6 1144.9 310.3 1142.5 308.5 C 1142 307.1 1141 306.4 1139.5 306.5 C 1137.9 306.3 1136.6 305.6 1135.5 304.5 C 1135 303.1 1134 302.4 1132.5 302.5 C 1130.9 302.3 1129.6 301.6 1128.5 300.5 C 1128 299.1 1127 298.4 1125.5 298.5 C 1123 297.4 1120.7 296.1 1118.5 294.5 C 1118 293.1 1117 292.4 1115.5 292.5 C 1114.8 292.2 1114.2 291.8 1113.5 291.5 C 1113 290.1 1112 289.4 1110.5 289.5 C 1107.8 287.8 1105.2 286.2 1102.5 284.5 C 1102 283.1 1101 282.4 1099.5 282.5 C 1043.1 246.6 995.9 200.9 958 145.5 C 928.8 101.4 913.3 52.8 911.5 -0.5 Z" />
    </g>
    <g>
        <path style="opacity: 1" fill="#722de0"
            d="M 1099.5 282.5 C 1101 282.4 1102 283.1 1102.5 284.5 C 1101 284.6 1100 283.9 1099.5 282.5 Z" />
    </g>
    <g>
        <path style="opacity: 1" fill="#722de0"
            d="M 1110.5 289.5 C 1112 289.4 1113 290.1 1113.5 291.5 C 1112 291.6 1111 290.9 1110.5 289.5 Z" />
    </g>
    <g>
        <path style="opacity: 1" fill="#722de0"
            d="M 1115.5 292.5 C 1117 292.4 1118 293.1 1118.5 294.5 C 1117 294.6 1116 293.9 1115.5 292.5 Z" />
    </g>
    <g>
        <path style="opacity: 1" fill="#722de0"
            d="M 1125.5 298.5 C 1127 298.4 1128 299.1 1128.5 300.5 C 1127 300.6 1126 299.9 1125.5 298.5 Z" />
    </g>
    <g>
        <path style="opacity: 1" fill="#722de0"
            d="M 1132.5 302.5 C 1134 302.4 1135 303.1 1135.5 304.5 C 1134 304.6 1133 303.9 1132.5 302.5 Z" />
    </g>
    <g>
        <path style="opacity: 1" fill="#722de0"
            d="M 1139.5 306.5 C 1141 306.4 1142 307.1 1142.5 308.5 C 1141 308.6 1140 307.9 1139.5 306.5 Z" />
    </g>
    <g>
        <path style="opacity: 1" fill="#722de0"
            d="M 1150.5 312.5 C 1152 312.4 1153 313.1 1153.5 314.5 C 1152 314.6 1151 313.9 1150.5 312.5 Z" />
    </g>
    <g>
        <path style="opacity: 1" fill="#6c33e6"
            d="M 1919.5 396.5 C 1919.5 397.5 1919.5 398.5 1919.5 399.5 C 1915.5 399.5 1911.5 399.5 1907.5 399.5 C 1911.4 398.5 1915.4 397.5 1919.5 396.5 Z" />
    </g>
</svg>